@relation jAudio
@ATTRIBUTE "Spectral Centroid Overall Standard Deviation0" NUMERIC
@ATTRIBUTE "Spectral Rolloff Point Overall Standard Deviation0" NUMERIC
@ATTRIBUTE "Spectral Flux Overall Standard Deviation0" NUMERIC
@ATTRIBUTE "Compactness Overall Standard Deviation0" NUMERIC
@ATTRIBUTE "Spectral Variability Overall Standard Deviation0" NUMERIC
@ATTRIBUTE "Root Mean Square Overall Standard Deviation0" NUMERIC
@ATTRIBUTE "Fraction Of Low Energy Windows Overall Standard Deviation0" NUMERIC
@ATTRIBUTE "Zero Crossings Overall Standard Deviation0" NUMERIC
@ATTRIBUTE "Strongest Beat Overall Standard Deviation0" NUMERIC
@ATTRIBUTE "Beat Sum Overall Standard Deviation0" NUMERIC
@ATTRIBUTE "Strength Of Strongest Beat Overall Standard Deviation0" NUMERIC
@ATTRIBUTE "MFCC Overall Standard Deviation0" NUMERIC
@ATTRIBUTE "MFCC Overall Standard Deviation1" NUMERIC
@ATTRIBUTE "MFCC Overall Standard Deviation2" NUMERIC
@ATTRIBUTE "MFCC Overall Standard Deviation3" NUMERIC
@ATTRIBUTE "MFCC Overall Standard Deviation4" NUMERIC
@ATTRIBUTE "MFCC Overall Standard Deviation5" NUMERIC
@ATTRIBUTE "MFCC Overall Standard Deviation6" NUMERIC
@ATTRIBUTE "MFCC Overall Standard Deviation7" NUMERIC
@ATTRIBUTE "MFCC Overall Standard Deviation8" NUMERIC
@ATTRIBUTE "MFCC Overall Standard Deviation9" NUMERIC
@ATTRIBUTE "MFCC Overall Standard Deviation10" NUMERIC
@ATTRIBUTE "MFCC Overall Standard Deviation11" NUMERIC
@ATTRIBUTE "MFCC Overall Standard Deviation12" NUMERIC
@ATTRIBUTE "LPC Overall Standard Deviation0" NUMERIC
@ATTRIBUTE "LPC Overall Standard Deviation1" NUMERIC
@ATTRIBUTE "LPC Overall Standard Deviation2" NUMERIC
@ATTRIBUTE "LPC Overall Standard Deviation3" NUMERIC
@ATTRIBUTE "LPC Overall Standard Deviation4" NUMERIC
@ATTRIBUTE "LPC Overall Standard Deviation5" NUMERIC
@ATTRIBUTE "LPC Overall Standard Deviation6" NUMERIC
@ATTRIBUTE "LPC Overall Standard Deviation7" NUMERIC
@ATTRIBUTE "LPC Overall Standard Deviation8" NUMERIC
@ATTRIBUTE "LPC Overall Standard Deviation9" NUMERIC
@ATTRIBUTE "Method of Moments Overall Standard Deviation0" NUMERIC
@ATTRIBUTE "Method of Moments Overall Standard Deviation1" NUMERIC
@ATTRIBUTE "Method of Moments Overall Standard Deviation2" NUMERIC
@ATTRIBUTE "Method of Moments Overall Standard Deviation3" NUMERIC
@ATTRIBUTE "Method of Moments Overall Standard Deviation4" NUMERIC
@ATTRIBUTE "Spectral Centroid Overall Average0" NUMERIC
@ATTRIBUTE "Spectral Rolloff Point Overall Average0" NUMERIC
@ATTRIBUTE "Spectral Flux Overall Average0" NUMERIC
@ATTRIBUTE "Compactness Overall Average0" NUMERIC
@ATTRIBUTE "Spectral Variability Overall Average0" NUMERIC
@ATTRIBUTE "Root Mean Square Overall Average0" NUMERIC
@ATTRIBUTE "Fraction Of Low Energy Windows Overall Average0" NUMERIC
@ATTRIBUTE "Zero Crossings Overall Average0" NUMERIC
@ATTRIBUTE "Strongest Beat Overall Average0" NUMERIC
@ATTRIBUTE "Beat Sum Overall Average0" NUMERIC
@ATTRIBUTE "Strength Of Strongest Beat Overall Average0" NUMERIC
@ATTRIBUTE "MFCC Overall Average0" NUMERIC
@ATTRIBUTE "MFCC Overall Average1" NUMERIC
@ATTRIBUTE "MFCC Overall Average2" NUMERIC
@ATTRIBUTE "MFCC Overall Average3" NUMERIC
@ATTRIBUTE "MFCC Overall Average4" NUMERIC
@ATTRIBUTE "MFCC Overall Average5" NUMERIC
@ATTRIBUTE "MFCC Overall Average6" NUMERIC
@ATTRIBUTE "MFCC Overall Average7" NUMERIC
@ATTRIBUTE "MFCC Overall Average8" NUMERIC
@ATTRIBUTE "MFCC Overall Average9" NUMERIC
@ATTRIBUTE "MFCC Overall Average10" NUMERIC
@ATTRIBUTE "MFCC Overall Average11" NUMERIC
@ATTRIBUTE "MFCC Overall Average12" NUMERIC
@ATTRIBUTE "LPC Overall Average0" NUMERIC
@ATTRIBUTE "LPC Overall Average1" NUMERIC
@ATTRIBUTE "LPC Overall Average2" NUMERIC
@ATTRIBUTE "LPC Overall Average3" NUMERIC
@ATTRIBUTE "LPC Overall Average4" NUMERIC
@ATTRIBUTE "LPC Overall Average5" NUMERIC
@ATTRIBUTE "LPC Overall Average6" NUMERIC
@ATTRIBUTE "LPC Overall Average7" NUMERIC
@ATTRIBUTE "LPC Overall Average8" NUMERIC
@ATTRIBUTE "LPC Overall Average9" NUMERIC
@ATTRIBUTE "Method of Moments Overall Average0" NUMERIC
@ATTRIBUTE "Method of Moments Overall Average1" NUMERIC
@ATTRIBUTE "Method of Moments Overall Average2" NUMERIC
@ATTRIBUTE "Method of Moments Overall Average3" NUMERIC
@ATTRIBUTE "Method of Moments Overall Average4" NUMERIC
@ATTRIBUTE AGE{10,11,12,13,14,15,16,17,18,19,20,21,22,23,24,25,26,27,28,29,30,31,32,33,34,35,36,37,38,39,40,41,42,43,44,45,46,47,48,49,50,51,52,53,54,55,56,57,58,59,60,61,62,63,64,65,66,67,68,69,70}
@DATA
4.742E1,2.613E-1,1.145E-4,2.136E2,4.589E-4,1.752E-2,1.371E-2,9.541E1,0E0,0E0,0E0,3.288E1,9.332E0,9.396E0,6.806E0,5.139E0,3.737E0,3.634E0,2.867E0,2.598E0,2.282E0,2.154E0,2.14E0,2.246E0,4.359E-1,3.442E-1,3.171E-1,2.663E-1,2.295E-1,2.489E-1,2.231E-1,1.801E-1,1.743E-1,0E0,3.49E-2,3.991E1,1.614E3,1.11E5,1.714E7,5.093E1,3.02E-1,6.384E-5,1.606E3,4.013E-4,1.61E-2,6.521E-1,1.193E2,0E0,0E0,0E0,-1.86E2,1.804E0,-2.65E0,-4.005E0,-3.92E0,8.206E-1,-1.499E0,-2.686E-1,3.416E-1,-7.69E-1,5.569E-1,2.244E-1,-1.709E0,-6.797E-1,5.422E-1,-2.558E-1,2.081E-1,-9.887E-2,1.682E-1,3.182E-2,1.126E-1,-1.27E-2,0E0,3.401E-2,6.689E1,2.506E3,1.017E5,2.727E7,20
