@relation jAudio
@ATTRIBUTE "Spectral Centroid Overall Standard Deviation0" NUMERIC
@ATTRIBUTE "Spectral Rolloff Point Overall Standard Deviation0" NUMERIC
@ATTRIBUTE "Spectral Flux Overall Standard Deviation0" NUMERIC
@ATTRIBUTE "Compactness Overall Standard Deviation0" NUMERIC
@ATTRIBUTE "Spectral Variability Overall Standard Deviation0" NUMERIC
@ATTRIBUTE "Root Mean Square Overall Standard Deviation0" NUMERIC
@ATTRIBUTE "Fraction Of Low Energy Windows Overall Standard Deviation0" NUMERIC
@ATTRIBUTE "Zero Crossings Overall Standard Deviation0" NUMERIC
@ATTRIBUTE "Strongest Beat Overall Standard Deviation0" NUMERIC
@ATTRIBUTE "Beat Sum Overall Standard Deviation0" NUMERIC
@ATTRIBUTE "Strength Of Strongest Beat Overall Standard Deviation0" NUMERIC
@ATTRIBUTE "MFCC Overall Standard Deviation0" NUMERIC
@ATTRIBUTE "MFCC Overall Standard Deviation1" NUMERIC
@ATTRIBUTE "MFCC Overall Standard Deviation2" NUMERIC
@ATTRIBUTE "MFCC Overall Standard Deviation3" NUMERIC
@ATTRIBUTE "MFCC Overall Standard Deviation4" NUMERIC
@ATTRIBUTE "MFCC Overall Standard Deviation5" NUMERIC
@ATTRIBUTE "MFCC Overall Standard Deviation6" NUMERIC
@ATTRIBUTE "MFCC Overall Standard Deviation7" NUMERIC
@ATTRIBUTE "MFCC Overall Standard Deviation8" NUMERIC
@ATTRIBUTE "MFCC Overall Standard Deviation9" NUMERIC
@ATTRIBUTE "MFCC Overall Standard Deviation10" NUMERIC
@ATTRIBUTE "MFCC Overall Standard Deviation11" NUMERIC
@ATTRIBUTE "MFCC Overall Standard Deviation12" NUMERIC
@ATTRIBUTE "LPC Overall Standard Deviation0" NUMERIC
@ATTRIBUTE "LPC Overall Standard Deviation1" NUMERIC
@ATTRIBUTE "LPC Overall Standard Deviation2" NUMERIC
@ATTRIBUTE "LPC Overall Standard Deviation3" NUMERIC
@ATTRIBUTE "LPC Overall Standard Deviation4" NUMERIC
@ATTRIBUTE "LPC Overall Standard Deviation5" NUMERIC
@ATTRIBUTE "LPC Overall Standard Deviation6" NUMERIC
@ATTRIBUTE "LPC Overall Standard Deviation7" NUMERIC
@ATTRIBUTE "LPC Overall Standard Deviation8" NUMERIC
@ATTRIBUTE "LPC Overall Standard Deviation9" NUMERIC
@ATTRIBUTE "Method of Moments Overall Standard Deviation0" NUMERIC
@ATTRIBUTE "Method of Moments Overall Standard Deviation1" NUMERIC
@ATTRIBUTE "Method of Moments Overall Standard Deviation2" NUMERIC
@ATTRIBUTE "Method of Moments Overall Standard Deviation3" NUMERIC
@ATTRIBUTE "Method of Moments Overall Standard Deviation4" NUMERIC
@ATTRIBUTE "Spectral Centroid Overall Average0" NUMERIC
@ATTRIBUTE "Spectral Rolloff Point Overall Average0" NUMERIC
@ATTRIBUTE "Spectral Flux Overall Average0" NUMERIC
@ATTRIBUTE "Compactness Overall Average0" NUMERIC
@ATTRIBUTE "Spectral Variability Overall Average0" NUMERIC
@ATTRIBUTE "Root Mean Square Overall Average0" NUMERIC
@ATTRIBUTE "Fraction Of Low Energy Windows Overall Average0" NUMERIC
@ATTRIBUTE "Zero Crossings Overall Average0" NUMERIC
@ATTRIBUTE "Strongest Beat Overall Average0" NUMERIC
@ATTRIBUTE "Beat Sum Overall Average0" NUMERIC
@ATTRIBUTE "Strength Of Strongest Beat Overall Average0" NUMERIC
@ATTRIBUTE "MFCC Overall Average0" NUMERIC
@ATTRIBUTE "MFCC Overall Average1" NUMERIC
@ATTRIBUTE "MFCC Overall Average2" NUMERIC
@ATTRIBUTE "MFCC Overall Average3" NUMERIC
@ATTRIBUTE "MFCC Overall Average4" NUMERIC
@ATTRIBUTE "MFCC Overall Average5" NUMERIC
@ATTRIBUTE "MFCC Overall Average6" NUMERIC
@ATTRIBUTE "MFCC Overall Average7" NUMERIC
@ATTRIBUTE "MFCC Overall Average8" NUMERIC
@ATTRIBUTE "MFCC Overall Average9" NUMERIC
@ATTRIBUTE "MFCC Overall Average10" NUMERIC
@ATTRIBUTE "MFCC Overall Average11" NUMERIC
@ATTRIBUTE "MFCC Overall Average12" NUMERIC
@ATTRIBUTE "LPC Overall Average0" NUMERIC
@ATTRIBUTE "LPC Overall Average1" NUMERIC
@ATTRIBUTE "LPC Overall Average2" NUMERIC
@ATTRIBUTE "LPC Overall Average3" NUMERIC
@ATTRIBUTE "LPC Overall Average4" NUMERIC
@ATTRIBUTE "LPC Overall Average5" NUMERIC
@ATTRIBUTE "LPC Overall Average6" NUMERIC
@ATTRIBUTE "LPC Overall Average7" NUMERIC
@ATTRIBUTE "LPC Overall Average8" NUMERIC
@ATTRIBUTE "LPC Overall Average9" NUMERIC
@ATTRIBUTE "Method of Moments Overall Average0" NUMERIC
@ATTRIBUTE "Method of Moments Overall Average1" NUMERIC
@ATTRIBUTE "Method of Moments Overall Average2" NUMERIC
@ATTRIBUTE "Method of Moments Overall Average3" NUMERIC
@ATTRIBUTE "Method of Moments Overall Average4" NUMERIC
@ATTRIBUTE AGE{10,11,12,13,14,15,16,17,18,19,20,21,22,23,24,25,26,27,28,29,30,31,32,33,34,35,36,37,38,39,40,41,42,43,44,45,46,47,48,49,50,51,52,53,54,55,56,57,58,59,60,61,62,63,64,65,66,67,68,69,70}
@DATA
1.918E1,1.315E-1,5.901E-4,1.754E2,1.124E-3,4.233E-2,0E0,3.057E1,0E0,0E0,0E0,2.956E1,8.796E0,8.217E0,3.604E0,5.092E0,3.72E0,4.749E0,5.558E0,5.244E0,2.418E0,4.454E0,5.541E0,4.839E0,1.512E-1,2.913E-1,2.677E-1,1.684E-1,2.307E-1,1.78E-1,1.774E-1,1.537E-1,1.361E-1,0E0,7.41E-2,2.041E1,1.153E3,7.274E4,1.199E7,1.937E1,1.115E-1,2.613E-4,1.667E3,1.329E-3,5.061E-2,0E0,3.985E1,0E0,0E0,0E0,-1.655E2,1.054E1,-3.373E0,2.54E-1,-4.483E0,2.828E-2,1.648E0,-1.874E0,-5.105E0,-2.652E-1,7.448E-1,-8.969E-1,2.092E0,-9.363E-1,6.726E-1,-1.372E-2,1.303E-1,-1.376E-1,1.875E-1,6.989E-2,1.421E-2,2.552E-2,0E0,7.99E-2,3.402E1,1.474E3,1.133E5,1.878E7,20
1.918E1,1.315E-1,5.901E-4,1.754E2,1.124E-3,4.233E-2,0E0,3.057E1,0E0,0E0,0E0,2.956E1,8.796E0,8.217E0,3.604E0,5.092E0,3.72E0,4.749E0,5.558E0,5.244E0,2.418E0,4.454E0,5.541E0,4.839E0,1.512E-1,2.913E-1,2.677E-1,1.684E-1,2.307E-1,1.78E-1,1.774E-1,1.537E-1,1.361E-1,0E0,7.41E-2,2.041E1,1.153E3,7.274E4,1.199E7,1.937E1,1.115E-1,2.613E-4,1.667E3,1.329E-3,5.061E-2,0E0,3.985E1,0E0,0E0,0E0,-1.655E2,1.054E1,-3.373E0,2.54E-1,-4.483E0,2.828E-2,1.648E0,-1.874E0,-5.105E0,-2.652E-1,7.448E-1,-8.969E-1,2.092E0,-9.363E-1,6.726E-1,-1.372E-2,1.303E-1,-1.376E-1,1.875E-1,6.989E-2,1.421E-2,2.552E-2,0E0,7.99E-2,3.402E1,1.474E3,1.133E5,1.878E7,19
1.918E1,1.315E-1,5.901E-4,1.754E2,1.124E-3,4.233E-2,0E0,3.057E1,0E0,0E0,0E0,2.956E1,8.796E0,8.217E0,3.604E0,5.092E0,3.72E0,4.749E0,5.558E0,5.244E0,2.418E0,4.454E0,5.541E0,4.839E0,1.512E-1,2.913E-1,2.677E-1,1.684E-1,2.307E-1,1.78E-1,1.774E-1,1.537E-1,1.361E-1,0E0,7.41E-2,2.041E1,1.153E3,7.274E4,1.199E7,1.937E1,1.115E-1,2.613E-4,1.667E3,1.329E-3,5.061E-2,0E0,3.985E1,0E0,0E0,0E0,-1.655E2,1.054E1,-3.373E0,2.54E-1,-4.483E0,2.828E-2,1.648E0,-1.874E0,-5.105E0,-2.652E-1,7.448E-1,-8.969E-1,2.092E0,-9.363E-1,6.726E-1,-1.372E-2,1.303E-1,-1.376E-1,1.875E-1,6.989E-2,1.421E-2,2.552E-2,0E0,7.99E-2,3.402E1,1.474E3,1.133E5,1.878E7,24
1.918E1,1.315E-1,5.901E-4,1.754E2,1.124E-3,4.233E-2,0E0,3.057E1,0E0,0E0,0E0,2.956E1,8.796E0,8.217E0,3.604E0,5.092E0,3.72E0,4.749E0,5.558E0,5.244E0,2.418E0,4.454E0,5.541E0,4.839E0,1.512E-1,2.913E-1,2.677E-1,1.684E-1,2.307E-1,1.78E-1,1.774E-1,1.537E-1,1.361E-1,0E0,7.41E-2,2.041E1,1.153E3,7.274E4,1.199E7,1.937E1,1.115E-1,2.613E-4,1.667E3,1.329E-3,5.061E-2,0E0,3.985E1,0E0,0E0,0E0,-1.655E2,1.054E1,-3.373E0,2.54E-1,-4.483E0,2.828E-2,1.648E0,-1.874E0,-5.105E0,-2.652E-1,7.448E-1,-8.969E-1,2.092E0,-9.363E-1,6.726E-1,-1.372E-2,1.303E-1,-1.376E-1,1.875E-1,6.989E-2,1.421E-2,2.552E-2,0E0,7.99E-2,3.402E1,1.474E3,1.133E5,1.878E7,34
1.918E1,1.315E-1,5.901E-4,1.754E2,1.124E-3,4.233E-2,0E0,3.057E1,0E0,0E0,0E0,2.956E1,8.796E0,8.217E0,3.604E0,5.092E0,3.72E0,4.749E0,5.558E0,5.244E0,2.418E0,4.454E0,5.541E0,4.839E0,1.512E-1,2.913E-1,2.677E-1,1.684E-1,2.307E-1,1.78E-1,1.774E-1,1.537E-1,1.361E-1,0E0,7.41E-2,2.041E1,1.153E3,7.274E4,1.199E7,1.937E1,1.115E-1,2.613E-4,1.667E3,1.329E-3,5.061E-2,0E0,3.985E1,0E0,0E0,0E0,-1.655E2,1.054E1,-3.373E0,2.54E-1,-4.483E0,2.828E-2,1.648E0,-1.874E0,-5.105E0,-2.652E-1,7.448E-1,-8.969E-1,2.092E0,-9.363E-1,6.726E-1,-1.372E-2,1.303E-1,-1.376E-1,1.875E-1,6.989E-2,1.421E-2,2.552E-2,0E0,7.99E-2,3.402E1,1.474E3,1.133E5,1.878E7,29
1.918E1,1.315E-1,5.901E-4,1.754E2,1.124E-3,4.233E-2,0E0,3.057E1,0E0,0E0,0E0,2.956E1,8.796E0,8.217E0,3.604E0,5.092E0,3.72E0,4.749E0,5.558E0,5.244E0,2.418E0,4.454E0,5.541E0,4.839E0,1.512E-1,2.913E-1,2.677E-1,1.684E-1,2.307E-1,1.78E-1,1.774E-1,1.537E-1,1.361E-1,0E0,7.41E-2,2.041E1,1.153E3,7.274E4,1.199E7,1.937E1,1.115E-1,2.613E-4,1.667E3,1.329E-3,5.061E-2,0E0,3.985E1,0E0,0E0,0E0,-1.655E2,1.054E1,-3.373E0,2.54E-1,-4.483E0,2.828E-2,1.648E0,-1.874E0,-5.105E0,-2.652E-1,7.448E-1,-8.969E-1,2.092E0,-9.363E-1,6.726E-1,-1.372E-2,1.303E-1,-1.376E-1,1.875E-1,6.989E-2,1.421E-2,2.552E-2,0E0,7.99E-2,3.402E1,1.474E3,1.133E5,1.878E7,49
1.918E1,1.315E-1,5.901E-4,1.754E2,1.124E-3,4.233E-2,0E0,3.057E1,0E0,0E0,0E0,2.956E1,8.796E0,8.217E0,3.604E0,5.092E0,3.72E0,4.749E0,5.558E0,5.244E0,2.418E0,4.454E0,5.541E0,4.839E0,1.512E-1,2.913E-1,2.677E-1,1.684E-1,2.307E-1,1.78E-1,1.774E-1,1.537E-1,1.361E-1,0E0,7.41E-2,2.041E1,1.153E3,7.274E4,1.199E7,1.937E1,1.115E-1,2.613E-4,1.667E3,1.329E-3,5.061E-2,0E0,3.985E1,0E0,0E0,0E0,-1.655E2,1.054E1,-3.373E0,2.54E-1,-4.483E0,2.828E-2,1.648E0,-1.874E0,-5.105E0,-2.652E-1,7.448E-1,-8.969E-1,2.092E0,-9.363E-1,6.726E-1,-1.372E-2,1.303E-1,-1.376E-1,1.875E-1,6.989E-2,1.421E-2,2.552E-2,0E0,7.99E-2,3.402E1,1.474E3,1.133E5,1.878E7,25
1.918E1,1.315E-1,5.901E-4,1.754E2,1.124E-3,4.233E-2,0E0,3.057E1,0E0,0E0,0E0,2.956E1,8.796E0,8.217E0,3.604E0,5.092E0,3.72E0,4.749E0,5.558E0,5.244E0,2.418E0,4.454E0,5.541E0,4.839E0,1.512E-1,2.913E-1,2.677E-1,1.684E-1,2.307E-1,1.78E-1,1.774E-1,1.537E-1,1.361E-1,0E0,7.41E-2,2.041E1,1.153E3,7.274E4,1.199E7,1.937E1,1.115E-1,2.613E-4,1.667E3,1.329E-3,5.061E-2,0E0,3.985E1,0E0,0E0,0E0,-1.655E2,1.054E1,-3.373E0,2.54E-1,-4.483E0,2.828E-2,1.648E0,-1.874E0,-5.105E0,-2.652E-1,7.448E-1,-8.969E-1,2.092E0,-9.363E-1,6.726E-1,-1.372E-2,1.303E-1,-1.376E-1,1.875E-1,6.989E-2,1.421E-2,2.552E-2,0E0,7.99E-2,3.402E1,1.474E3,1.133E5,1.878E7,16
1.918E1,1.315E-1,5.901E-4,1.754E2,1.124E-3,4.233E-2,0E0,3.057E1,0E0,0E0,0E0,2.956E1,8.796E0,8.217E0,3.604E0,5.092E0,3.72E0,4.749E0,5.558E0,5.244E0,2.418E0,4.454E0,5.541E0,4.839E0,1.512E-1,2.913E-1,2.677E-1,1.684E-1,2.307E-1,1.78E-1,1.774E-1,1.537E-1,1.361E-1,0E0,7.41E-2,2.041E1,1.153E3,7.274E4,1.199E7,1.937E1,1.115E-1,2.613E-4,1.667E3,1.329E-3,5.061E-2,0E0,3.985E1,0E0,0E0,0E0,-1.655E2,1.054E1,-3.373E0,2.54E-1,-4.483E0,2.828E-2,1.648E0,-1.874E0,-5.105E0,-2.652E-1,7.448E-1,-8.969E-1,2.092E0,-9.363E-1,6.726E-1,-1.372E-2,1.303E-1,-1.376E-1,1.875E-1,6.989E-2,1.421E-2,2.552E-2,0E0,7.99E-2,3.402E1,1.474E3,1.133E5,1.878E7,23
1.918E1,1.315E-1,5.901E-4,1.754E2,1.124E-3,4.233E-2,0E0,3.057E1,0E0,0E0,0E0,2.956E1,8.796E0,8.217E0,3.604E0,5.092E0,3.72E0,4.749E0,5.558E0,5.244E0,2.418E0,4.454E0,5.541E0,4.839E0,1.512E-1,2.913E-1,2.677E-1,1.684E-1,2.307E-1,1.78E-1,1.774E-1,1.537E-1,1.361E-1,0E0,7.41E-2,2.041E1,1.153E3,7.274E4,1.199E7,1.937E1,1.115E-1,2.613E-4,1.667E3,1.329E-3,5.061E-2,0E0,3.985E1,0E0,0E0,0E0,-1.655E2,1.054E1,-3.373E0,2.54E-1,-4.483E0,2.828E-2,1.648E0,-1.874E0,-5.105E0,-2.652E-1,7.448E-1,-8.969E-1,2.092E0,-9.363E-1,6.726E-1,-1.372E-2,1.303E-1,-1.376E-1,1.875E-1,6.989E-2,1.421E-2,2.552E-2,0E0,7.99E-2,3.402E1,1.474E3,1.133E5,1.878E7,14
1.918E1,1.315E-1,5.901E-4,1.754E2,1.124E-3,4.233E-2,0E0,3.057E1,0E0,0E0,0E0,2.956E1,8.796E0,8.217E0,3.604E0,5.092E0,3.72E0,4.749E0,5.558E0,5.244E0,2.418E0,4.454E0,5.541E0,4.839E0,1.512E-1,2.913E-1,2.677E-1,1.684E-1,2.307E-1,1.78E-1,1.774E-1,1.537E-1,1.361E-1,0E0,7.41E-2,2.041E1,1.153E3,7.274E4,1.199E7,1.937E1,1.115E-1,2.613E-4,1.667E3,1.329E-3,5.061E-2,0E0,3.985E1,0E0,0E0,0E0,-1.655E2,1.054E1,-3.373E0,2.54E-1,-4.483E0,2.828E-2,1.648E0,-1.874E0,-5.105E0,-2.652E-1,7.448E-1,-8.969E-1,2.092E0,-9.363E-1,6.726E-1,-1.372E-2,1.303E-1,-1.376E-1,1.875E-1,6.989E-2,1.421E-2,2.552E-2,0E0,7.99E-2,3.402E1,1.474E3,1.133E5,1.878E7,36
1.918E1,1.315E-1,5.901E-4,1.754E2,1.124E-3,4.233E-2,0E0,3.057E1,0E0,0E0,0E0,2.956E1,8.796E0,8.217E0,3.604E0,5.092E0,3.72E0,4.749E0,5.558E0,5.244E0,2.418E0,4.454E0,5.541E0,4.839E0,1.512E-1,2.913E-1,2.677E-1,1.684E-1,2.307E-1,1.78E-1,1.774E-1,1.537E-1,1.361E-1,0E0,7.41E-2,2.041E1,1.153E3,7.274E4,1.199E7,1.937E1,1.115E-1,2.613E-4,1.667E3,1.329E-3,5.061E-2,0E0,3.985E1,0E0,0E0,0E0,-1.655E2,1.054E1,-3.373E0,2.54E-1,-4.483E0,2.828E-2,1.648E0,-1.874E0,-5.105E0,-2.652E-1,7.448E-1,-8.969E-1,2.092E0,-9.363E-1,6.726E-1,-1.372E-2,1.303E-1,-1.376E-1,1.875E-1,6.989E-2,1.421E-2,2.552E-2,0E0,7.99E-2,3.402E1,1.474E3,1.133E5,1.878E7,59